"leaf_type","Broadleaf","gymnos","unclassified"
"abbreviation","B","G","U"
"broadleaf","1","0","0"
"needle","0","1","0"
"gymnosperm","0","1","0"
"Broadleaf","1","0","0"
"scale","0","1","0"
"","0","0","1"
"gymnosperm - scale","0","1","0"
"no classification possible","0","0","1"
